…
fisheries_tidy$catch <- as.numeric(fisheries_tidy$catch)
```

3. How many countries are represented in the data? Provide a count and list their names.

```r
fisheries %>% 
  count(country, sort = T)
```

```
## # A tibble: 204 × 2
##    country                      n
##    <fct>                    <int>
##  1 Spain                      915
##  2 Portugal                   763
##  3 United States of America   627
##  4 Korea, Republic of         620
##  5 Japan                      611
##  6 Russian Federation         523
##  7 Un. Sov. Soc. Rep.         515
##  8 France                     489
##  9 United Kingdom             362
## 10 Taiwan Province of China   310
## # … with 194 more rows
```
204 countries are represented in the data.

4. Refocus the data only to include country, isscaap_taxonomic_group, asfis_species_name, asfis_species_number, year, catch.

```r
fisheries_tidy %>% 
  select(country, isscaap_taxonomic_group, asfis_species_name, asfis_species_number, year, catch)
```

```
## # A tibble: 376,771 × 6
##    country isscaap_taxonomic_group asfis_species_n… asfis_species_n…  year catch
##    <fct>   <chr>                   <chr>            <fct>            <dbl> <dbl>
##  1 Albania Sharks, rays, chimaeras Squatinidae      10903XXXXX        1995    NA
##  2 Albania Sharks, rays, chimaeras Squatinidae      10903XXXXX        1996    53
##  3 Albania Sharks, rays, chimaeras Squatinidae      10903XXXXX        1997    20
##  4 Albania Sharks, rays, chimaeras Squatinidae      10903XXXXX        1998    31
##  5 Albania Sharks, rays, chimaeras Squatinidae      10903XXXXX        1999    30
##  6 Albania Sharks, rays, chimaeras Squatinidae      10903XXXXX        2000    30
##  7 Albania Sharks, rays, chimaeras Squatinidae      10903XXXXX        2001    16
##  8 Albania Sharks, rays, chimaeras Squatinidae      10903XXXXX        2002    79
##  9 Albania Sharks, rays, chimaeras Squatinidae      10903XXXXX        2003     1
## 10 Albania Sharks, rays, chimaeras Squatinidae      10903XXXXX        2004     4
## # … with 376,761 more rows
```

5. Based on the asfis_species_number, how many distinct fish species were caught as part of these data?

```r
fisheries_tidy %>% 
 group_by(asfis_species_number) %>% 
  summarize(n=n())
```

```
## # A tibble: 1,551 × 2
##    asfis_species_number     n
##    <fct>                <int>
##  1 1020100101             103
##  2 1020100201               2
##  3 10201XXXXX              23
##  4 1030300603              10
##  5 10303XXXXX              54
##  6 1050200201              45
##  7 1050200301               4
##  8 1050200502              26
##  9 1060100301             119
## 10 1060200501              23
## # … with 1,541 more rows
```
1551 distinct species were caught. 

6. Which country had the largest overall catch in the year 2000?

```r
fisheries_tidy %>% 
  filter(year==2000) %>% 
  group_by(country) %>% 
  summarize(n_catch=sum(catch, na.rm=T)) %>% 
  arrange(desc(n_catch))
```

```
## # A tibble: 193 × 2
##    country                  n_catch
##    <fct>                      <dbl>
##  1 China                      25899
##  2 Russian Federation         12181
##  3 United States of America   11762
##  4 Japan                       8510
##  5 Indonesia                   8341
##  6 Peru                        7443
##  7 Chile                       6906
##  8 India                       6351
##  9 Thailand                    6243
## 10 Korea, Republic of          6124
## # … with 183 more rows
```
…
```r
fisheries_tidy %>% 
  filter(year==2008:2012) %>% 
  group_by(asfis_species_name) %>% 
  summarize(n_catch=sum(catch, na.rm=T)) %>% 
  arrange(desc(n_catch))
```

```
## Warning in year == 2008:2012: longer object length is not a multiple of shorter
## object length
```

```
## # A tibble: 790 × 2
##    asfis_species_name               n_catch
##    <chr>                              <dbl>
##  1 Osteichthyes                       51491
##  2 Theragra chalcogramma              13364
##  3 Katsuwonus pelamis                  7032
##  4 Merluccius capensis, M.paradoxus    6262
##  5 Thunnus albacares                   5776
##  6 Mallotus villosus                   3437
##  7 Stolephorus spp                     2904
##  8 Thunnus alalunga                    2876
##  9 Auxis thazard, A. rochei            2867
## 10 Arctica islandica                   2782
## # … with 780 more rows
```
…
