…
1. (3 points) Once you have an idea of the structure of the data, please make each data set tidy (hint: think back to pivots) and store them as new objects. You will need both the original (wide) and tidy (long) data!  

```r
population_long <-population %>% 
  pivot_longer(-country,
               names_to = "year",
               names_prefix = "X",
               values_to = "population")
population_long
```

```
## # A tibble: 58,695 × 3
##    country     year  population
##    <chr>       <chr>      <int>
##  1 Afghanistan 1800     3280000
##  2 Afghanistan 1801     3280000
##  3 Afghanistan 1802     3280000
##  4 Afghanistan 1803     3280000
##  5 Afghanistan 1804     3280000
##  6 Afghanistan 1805     3280000
##  7 Afghanistan 1806     3280000
##  8 Afghanistan 1807     3280000
##  9 Afghanistan 1808     3280000
## 10 Afghanistan 1809     3280000
## # … with 58,685 more rows
```

```r
life_expectancy_long <-life_expectancy %>% 
  pivot_longer(-country,
               names_to = "year",
               names_prefix = "X",
               values_to = "life_expectancy_years")
life_expectancy_long
```

```
## # A tibble: 56,287 × 3
##    country     year  life_expectancy_years
##    <chr>       <chr>                 <dbl>
##  1 Afghanistan 1800                   28.2
##  2 Afghanistan 1801                   28.2
##  3 Afghanistan 1802                   28.2
##  4 Afghanistan 1803                   28.2
##  5 Afghanistan 1804                   28.2
##  6 Afghanistan 1805                   28.2
##  7 Afghanistan 1806                   28.1
##  8 Afghanistan 1807                   28.1
##  9 Afghanistan 1808                   28.1
## 10 Afghanistan 1809                   28.1
## # … with 56,277 more rows
```


```r
income_per_person_long <- income_per_person %>% 
  pivot_longer(-country,
               names_to = "year",
               names_prefix = "X",
               values_to = "income_per_person")
income_per_person_long
```

```
## # A tibble: 46,513 × 3
##    country     year  income_per_person
##    <chr>       <chr>             <int>
##  1 Afghanistan 1800                603
##  2 Afghanistan 1801                603
##  3 Afghanistan 1802                603
##  4 Afghanistan 1803                603
##  5 Afghanistan 1804                603
##  6 Afghanistan 1805                603
##  7 Afghanistan 1806                603
##  8 Afghanistan 1807                603
##  9 Afghanistan 1808                603
## 10 Afghanistan 1809                603
## # … with 46,503 more rows
```
…
## Life Expectancy  

3. (2 points) Let's limit the data to 100 years (1920-2020). For these years, which country has the highest average life expectancy? How about the lowest average life expectancy?  

```r
life_expectancy_long %>% 
  filter(year>=1920 & year<=2020) %>% 
  group_by(country) %>% 
  summarize(mean_life_expectancy=mean(life_expectancy_years, na.rm=T)) %>% 
  arrange(desc(mean_life_expectancy))
```

```
## # A tibble: 187 × 2
##    country     mean_life_expectancy
##    <chr>                      <dbl>
##  1 Andorra                     79.8
##  2 Sweden                      73.5
##  3 Norway                      73.2
##  4 Netherlands                 73.0
##  5 Dominica                    73.0
##  6 Iceland                     72.9
##  7 Australia                   72.7
##  8 Switzerland                 72.7
##  9 Denmark                     71.9
## 10 Canada                      71.8
## # … with 177 more rows
```
…
```r
income_100 <- income_per_person_long %>% 
  filter(year>=1920 & year<=2020)
```



```r
gapminder_join <- inner_join(life_expectancy_100, population_100, by= c("country", "year"))
gapminder_join <- inner_join(gapminder_join, income_100, by= c("country", "year"))
gapminder_join
```

```
## # A tibble: 18,887 × 5
##    country     year  life_expectancy_years population income_per_person
##    <chr>       <chr>                 <dbl>      <int>             <int>
##  1 Afghanistan 1920                   30.6   10600000              1490
##  2 Afghanistan 1921                   30.7   10500000              1520
##  3 Afghanistan 1922                   30.8   10300000              1550
##  4 Afghanistan 1923                   30.8    9710000              1570
##  5 Afghanistan 1924                   30.9    9200000              1600
##  6 Afghanistan 1925                   31      8720000              1630
##  7 Afghanistan 1926                   31      8260000              1650
##  8 Afghanistan 1927                   31.1    7830000              1680
##  9 Afghanistan 1928                   31.1    7420000              1710
## 10 Afghanistan 1929                   31.2    7100000              1740
## # … with 18,877 more rows
```

10. (4 points) Use the joined data to perform an analysis of your choice. The analysis should include a comparison between two or more of the variables `life_expectancy`, `population`, or `income.`  

```r
gapminder_join %>% 
  filter(year==2020) %>% 
  group_by(country) %>% 
  summarize(mean_life_exp=mean(life_expectancy_years, na.rm=T)) %>% 
  arrange(desc(mean_life_exp)) 
```

```
## # A tibble: 187 × 2
##    country     mean_life_exp
##    <chr>               <dbl>
##  1 Singapore            85.3
##  2 Japan                84.7
##  3 Switzerland          84.4
##  4 Italy                83.6
##  5 Spain                83.5
##  6 Israel               83.4
##  7 Kuwait               83.4
##  8 France               83.2
##  9 Iceland              83.2
## 10 South Korea          83.2
## # … with 177 more rows
```
…
