…
```r
deserts %>% 
  count(species) %>% 
  arrange(desc(n))
```

```
## # A tibble: 40 × 2
##    species          n
##    <chr>        <int>
##  1 merriami     10596
##  2 penicillatus  3123
##  3 ordii         3027
##  4 baileyi       2891
##  5 megalotis     2609
##  6 spectabilis   2504
##  7 torridus      2249
##  8 flavus        1597
##  9 eremicus      1299
## 10 albigula      1252
## # … with 30 more rows
```
…
## Warning in max(weight, na.rm = T): no non-missing arguments to max; returning
## -Inf

## Warning in max(weight, na.rm = T): no non-missing arguments to max; returning
## -Inf

## Warning in max(weight, na.rm = T): no non-missing arguments to max; returning
## -Inf

## Warning in max(weight, na.rm = T): no non-missing arguments to max; returning
## -Inf
```

```
## # A tibble: 40 × 3
##    species      min_weight max_weight
##    <chr>             <dbl>      <dbl>
##  1 flavus                4         25
##  2 megalotis             4         29
##  3 penicillatus          4         74
##  4 torridus              5         46
##  5 taylori               6         18
##  6 maniculatus           7         49
##  7 eremicus              8         40
##  8 leucopus              8         27
##  9 montanus              8         13
## 10 fulvescens            9         20
## # … with 30 more rows
```
…
7. [Dipodomys merriami](https://en.wikipedia.org/wiki/Merriam's_kangaroo_rat) is the most frequently sampled animal in the study. How have the number of observations of this species changed over the years included in the study?

```r
deserts %>% 
  filter(species=="merriami") %>% 
  group_by(year) %>% 
  summarise(n=n())
```

```
## # A tibble: 26 × 2
##     year     n
##    <dbl> <int>
##  1  1977   264
##  2  1978   389
##  3  1979   209
##  4  1980   493
##  5  1981   559
##  6  1982   609
##  7  1983   528
##  8  1984   396
##  9  1985   667
## 10  1986   406
## # … with 16 more rows
```
…
9. Which two species have, on average, the highest weight? Once you have identified them, make a new column that is a ratio of `weight` to `hindfoot_length`. Make a plot that shows the range of this new ratio and fill by sex.

```r
deserts %>% 
  select(genus, species, weight) %>% 
  group_by(species) %>% 
  summarize(mean_weight=mean(weight, na.rm=T)) %>% 
  arrange(desc(mean_weight))
```

```
## # A tibble: 40 × 2
##    species      mean_weight
##    <chr>              <dbl>
##  1 albigula           159. 
##  2 spectabilis        120. 
##  3 spilosoma           93.5
##  4 hispidus            65.6
##  5 fulviventer         58.9
##  6 ochrognathus        55.4
##  7 ordii               48.9
##  8 merriami            43.2
##  9 baileyi             31.7
## 10 leucogaster         31.6
## # … with 30 more rows
```

```r
deserts %>% 
  filter(species=="spectabilis" | species=="albigula") %>%
  filter(weight!="NA" & hindfoot_length!="NA") %>% 
  select(sex, genus, species, weight, hindfoot_length) %>% 
  mutate(ratio=weight/hindfoot_length) %>% 
  arrange(desc(ratio))
```

```
## # A tibble: 3,072 × 6
##    sex   genus   species  weight hindfoot_length ratio
##    <chr> <chr>   <chr>     <dbl>           <dbl> <dbl>
##  1 M     Neotoma albigula    278              32  8.69
##  2 M     Neotoma albigula    280              33  8.48
##  3 M     Neotoma albigula    270              32  8.44
##  4 F     Neotoma albigula    274              33  8.30
##  5 M     Neotoma albigula    253              32  7.91
##  6 M     Neotoma albigula    260              33  7.88
##  7 F     Neotoma albigula    252              32  7.88
##  8 M     Neotoma albigula    259              33  7.85
##  9 M     Neotoma albigula    259              33  7.85
## 10 M     Neotoma albigula    265              34  7.79
## # … with 3,062 more rows
```
…
10. Make one plot of your choice! Make sure to include at least two of the aesthetics options you have learned.

```r
deserts %>% 
  filter(species=="albigula") %>% 
  na.omit(weight) %>% 
  group_by(year) %>% 
  summarize(mean_weight=mean(weight))
```

```
## # A tibble: 25 × 2
##     year mean_weight
##    <dbl>       <dbl>
##  1  1978        181.
##  2  1979        138 
##  3  1980        160.
##  4  1981        161.
##  5  1982        164.
##  6  1983        156.
##  7  1984        150.
##  8  1985        149.
##  9  1986        160.
## 10  1987        160.
## # … with 15 more rows
```
…
