…
```
## [1] "birds"         "lake fishes"   "lizards"       "mammals"      
## [5] "marine fishes" "river fishes"  "snakes"        "tortoises"    
## [9] "turtles"
```



```r
taxa <- select(homerange, "taxon", "common.name", "class", "order", "family", "genus", "species")
taxa
```

```
## # A tibble: 569 × 7
##    taxon         common.name             class   order   family   genus  species
##    <fct>         <chr>                   <chr>   <fct>   <chr>    <chr>  <chr>  
##  1 lake fishes   american eel            actino… anguil… anguill… angui… rostra…
##  2 river fishes  blacktail redhorse      actino… cyprin… catosto… moxos… poecil…
##  3 river fishes  central stoneroller     actino… cyprin… cyprini… campo… anomal…
##  4 river fishes  rosyside dace           actino… cyprin… cyprini… clino… fundul…
##  5 river fishes  longnose dace           actino… cyprin… cyprini… rhini… catara…
##  6 river fishes  muskellunge             actino… esocif… esocidae esox   masqui…
##  7 marine fishes pollack                 actino… gadifo… gadidae  polla… pollac…
##  8 marine fishes saithe                  actino… gadifo… gadidae  polla… virens 
##  9 marine fishes lined surgeonfish       actino… percif… acanthu… acant… lineat…
## 10 marine fishes orangespine unicornfish actino… percif… acanthu… naso   litura…
## # … with 559 more rows
```
…
**10. As measured by the data, which snake species has the smallest homerange? Show all of your work, please. Look this species up online and tell me about it!** **Snake is found in taxon column**    

```r
snake <- filter(homerange, taxon=="snakes")
arrange(snake, mean.hra.m2)
```

```
## # A tibble: 41 × 24
##    taxon  common.name   class  order  family  genus  species primarymethod N    
##    <fct>  <chr>         <chr>  <fct>  <chr>   <chr>  <chr>   <chr>         <chr>
##  1 snakes namaqua dwar… repti… squam… viperi… bitis  schnei… telemetry     11   
##  2 snakes eastern worm… repti… squam… colubr… carph… viridis radiotag      10   
##  3 snakes butlers gart… repti… squam… colubr… thamn… butleri mark-recaptu… 1    
##  4 snakes western worm… repti… squam… colubr… carph… vermis  radiotag      1    
##  5 snakes snubnosed vi… repti… squam… viperi… vipera latast… telemetry     7    
##  6 snakes chinese pit … repti… squam… viperi… gloyd… shedao… telemetry     16   
##  7 snakes ringneck sna… repti… squam… colubr… diado… puncta… mark-recaptu… <NA> 
##  8 snakes cottonmouth   repti… squam… viperi… agkis… pisciv… telemetry     15   
##  9 snakes redbacked ra… repti… squam… colubr… oocat… rufodo… telemetry     21   
## 10 snakes gopher snake  repti… squam… colubr… pituo… cateni… telemetry     4    
## # … with 31 more rows, and 15 more variables: mean.mass.g <dbl>,
## #   log10.mass <dbl>, alternative.mass.reference <chr>, mean.hra.m2 <dbl>,
## #   log10.hra <dbl>, hra.reference <chr>, realm <chr>, thermoregulation <chr>,
## #   locomotion <chr>, trophic.guild <chr>, dimension <dbl>, preymass <dbl>,
## #   log10.preymass <dbl>, PPMR <dbl>, prey.size.reference <chr>
```
…
