…
2. Which cities in California have the highest number of colleges?

```r
cities <- college %>% 
  group_by(city) %>% 
  summarize(n_colleges=n()) %>% 
  arrange(desc(n_colleges))
cities
```

```
## # A tibble: 161 × 2
##    city          n_colleges
##    <chr>              <int>
##  1 Los Angeles           24
##  2 San Diego             18
##  3 San Francisco         15
##  4 Sacramento            10
##  5 Berkeley               9
##  6 Oakland                9
##  7 Claremont              7
##  8 Pasadena               6
##  9 Fresno                 5
## 10 Irvine                 5
## # … with 151 more rows
```
…
4. The column `COSTT4_A` is the annual cost of each institution. Which city has the highest average cost? Where is it located?

```r
college %>% 
  group_by(city) %>% 
  summarize(average_cost=mean(costt4_a, na.rm=T)) %>% 
  arrange(desc(average_cost))
```

```
## # A tibble: 161 × 2
##    city                average_cost
##    <chr>                      <dbl>
##  1 Claremont                  66498
##  2 Malibu                     66152
##  3 Valencia                   64686
##  4 Orange                     64501
##  5 Redlands                   61542
##  6 Moraga                     61095
##  7 Atherton                   56035
##  8 Thousand Oaks              54373
##  9 Rancho Palos Verdes        50758
## 10 La Verne                   50603
## # … with 151 more rows
```
…
