…
```
## 
## ℹ Use `spec()` to retrieve the full column specification for this data.
## ℹ Specify the column types or set `show_col_types = FALSE` to quiet this message.
```

```r
sydneybeaches
```

```
## # A tibble: 3,690 × 8
##    BeachId Region        Council Site  Longitude Latitude Date  `Enterococci (…`
##      <dbl> <chr>         <chr>   <chr>     <dbl>    <dbl> <chr>            <dbl>
##  1      25 Sydney City … Randwi… Clov…      151.    -33.9 02/0…               19
##  2      25 Sydney City … Randwi… Clov…      151.    -33.9 06/0…                3
##  3      25 Sydney City … Randwi… Clov…      151.    -33.9 12/0…                2
##  4      25 Sydney City … Randwi… Clov…      151.    -33.9 18/0…               13
##  5      25 Sydney City … Randwi… Clov…      151.    -33.9 30/0…                8
##  6      25 Sydney City … Randwi… Clov…      151.    -33.9 05/0…                7
##  7      25 Sydney City … Randwi… Clov…      151.    -33.9 11/0…               11
##  8      25 Sydney City … Randwi… Clov…      151.    -33.9 23/0…               97
##  9      25 Sydney City … Randwi… Clov…      151.    -33.9 07/0…                3
## 10      25 Sydney City … Randwi… Clov…      151.    -33.9 25/0…                0
## # … with 3,680 more rows
```
…
```
## 
## ℹ Use `spec()` to retrieve the full column specification for this data.
## ℹ Specify the column types or set `show_col_types = FALSE` to quiet this message.
```

```r
sydneybeaches
```

```
## # A tibble: 3,690 × 8
##    beach_id region       council site  longitude latitude date  enterococci_cfu…
##       <dbl> <chr>        <chr>   <chr>     <dbl>    <dbl> <chr>            <dbl>
##  1       25 Sydney City… Randwi… Clov…      151.    -33.9 02/0…               19
##  2       25 Sydney City… Randwi… Clov…      151.    -33.9 06/0…                3
##  3       25 Sydney City… Randwi… Clov…      151.    -33.9 12/0…                2
##  4       25 Sydney City… Randwi… Clov…      151.    -33.9 18/0…               13
##  5       25 Sydney City… Randwi… Clov…      151.    -33.9 30/0…                8
##  6       25 Sydney City… Randwi… Clov…      151.    -33.9 05/0…                7
##  7       25 Sydney City… Randwi… Clov…      151.    -33.9 11/0…               11
##  8       25 Sydney City… Randwi… Clov…      151.    -33.9 23/0…               97
##  9       25 Sydney City… Randwi… Clov…      151.    -33.9 07/0…                3
## 10       25 Sydney City… Randwi… Clov…      151.    -33.9 25/0…                0
## # … with 3,680 more rows
```

2. Are these data "tidy" per the definitions of the tidyverse? How do you know? Are they in wide or long format?
These data are in long format because there are multiple rows for each date. 

3. We are only interested in the variables site, date, and enterococci_cfu_100ml. Make a new object focused on these variables only. Name the object `sydneybeaches_long`

```r
sydneybeaches_long <- sydneybeaches %>% 
  select(site, date, enterococci_cfu_100ml) %>% 
  arrange(date)
sydneybeaches_long
```

```
## # A tibble: 3,690 × 3
##    site                    date       enterococci_cfu_100ml
##    <chr>                   <chr>                      <dbl>
##  1 Clovelly Beach          01/02/2014                     8
##  2 Coogee Beach            01/02/2014                    29
##  3 Gordons Bay (East)      01/02/2014                     5
##  4 Little Bay Beach        01/02/2014                    13
##  5 Malabar Beach           01/02/2014                    35
##  6 Maroubra Beach          01/02/2014                     3
##  7 South Maroubra Beach    01/02/2014                     3
##  8 South Maroubra Rockpool 01/02/2014                     5
##  9 Bondi Beach             01/02/2014                    15
## 10 Bronte Beach            01/02/2014                    17
## # … with 3,680 more rows
```
…
5. Pivot the data back so that the dates are data and not column names.

```r
sydneybeaches_wide %>% 
  pivot_longer(-site,
               names_to = "date",
               values_to = "enterococci_cfu_100ml")
```

```
## # A tibble: 3,784 × 3
##    site           date       enterococci_cfu_100ml
##    <chr>          <chr>                      <dbl>
##  1 Clovelly Beach 01/02/2014                     8
##  2 Clovelly Beach 01/02/2018                     3
##  3 Clovelly Beach 01/03/2013                    20
##  4 Clovelly Beach 01/04/2015                    44
##  5 Clovelly Beach 01/05/2013                     3
##  6 Clovelly Beach 01/06/2017                     4
##  7 Clovelly Beach 01/08/2014                     1
##  8 Clovelly Beach 01/08/2018                     3
##  9 Clovelly Beach 01/09/2016                     1
## 10 Clovelly Beach 01/09/2017                     3
## # … with 3,774 more rows
```


6. We haven't dealt much with dates yet, but separate the date into columns day, month, and year. Do this on the `sydneybeaches_long` data.

```r
sydneybeaches_long %>% 
  separate(date, into= c("month", "day", "year"), sep = "/")
```

```
## # A tibble: 3,690 × 5
##    site                    month day   year  enterococci_cfu_100ml
##    <chr>                   <chr> <chr> <chr>                 <dbl>
##  1 Clovelly Beach          01    02    2014                      8
##  2 Coogee Beach            01    02    2014                     29
##  3 Gordons Bay (East)      01    02    2014                      5
##  4 Little Bay Beach        01    02    2014                     13
##  5 Malabar Beach           01    02    2014                     35
##  6 Maroubra Beach          01    02    2014                      3
##  7 South Maroubra Beach    01    02    2014                      3
##  8 South Maroubra Rockpool 01    02    2014                      5
##  9 Bondi Beach             01    02    2014                     15
## 10 Bronte Beach            01    02    2014                     17
## # … with 3,680 more rows
```
…
```
## `summarise()` has grouped output by 'year'. You can override using the `.groups` argument.
```

```r
sydneybeaches_long2
```

```
## # A tibble: 66 × 3
## # Groups:   year [6]
##    year  site                    average_enterococci_cfu
##    <chr> <chr>                                     <dbl>
##  1 2013  Bondi Beach                               32.2 
##  2 2013  Bronte Beach                              26.8 
##  3 2013  Clovelly Beach                             9.28
##  4 2013  Coogee Beach                              39.7 
##  5 2013  Gordons Bay (East)                        24.8 
##  6 2013  Little Bay Beach                         122.  
##  7 2013  Malabar Beach                            101.  
##  8 2013  Maroubra Beach                            47.1 
##  9 2013  South Maroubra Beach                      39.3 
## 10 2013  South Maroubra Rockpool                   96.4 
## # … with 56 more rows
```
…
